…
Let’s make a trace tibble with `waveMC_to_tbl()`. This is equivalent to
the example data `ex_trace_tbl` which comes with `amganalysis`.

``` r
trace_tbl <- waveMC_to_tbl(wav, freq = 10000)
#> Loading required package: tuneR

trace_tbl
#> # A tibble: 192,804 x 4
#>    sample     secs stimulus response
#>     <int>    <dbl>    <int>    <int>
#>  1      1 0.0001       -256      128
#>  2      2 0.0002       -256      128
#>  3      3 0.000300     -320      128
#>  4      4 0.0004       -384      128
#>  5      5 0.0005       -320      128
#>  6      6 0.000600     -320      128
#>  7      7 0.0007       -256      128
#>  8      8 0.0008       -192      128
#>  9      9 0.0009       -192      128
#> 10     10 0.001         -64      128
#> # … with 192,794 more rows
```
…
